…
    #> 
    #> $processed_word_data
    #> # A tibble: 583 × 32
    #>    words   x_plotted p_values_x n_g1.x n_g2.x y_plotted p_values_y n_g1.y n_g2.y
    #>    <chr>       <dbl>      <dbl>  <dbl>  <dbl>     <dbl>      <dbl>  <dbl>  <dbl>
    #>  1 able        1.42      0.194       0      1     2.99  0.0000181       0      0
    #>  2 accept…     0.732     0.451      -1      1     1.40  0.0396         -1      1
    #>  3 accord      2.04      0.0651      0      1     3.45  0.00000401      0      1
    #>  4 active      1.46      0.180       0      1     1.92  0.00895         0      1
    #>  5 adapta…     2.40      0.0311      0      0     0.960 0.113           0      0
    #>  6 admiri…     0.161     0.839       0      0     1.58  0.0255          0      0
    #>  7 adrift     -2.64      0.0245     -1      0    -3.17  0.0000422      -1      0
    #>  8 affini…     1.03      0.320       0      1     2.24  0.00324         0      1
    #>  9 agreei…     1.62      0.140       0      1     2.12  0.00500         0      0
    #> 10 alcohol    -2.15      0.0822     -1      0    -1.78  0.0212          0      0
    #> # … with 573 more rows, and 23 more variables: n <dbl>, n.percent <dbl>,
    #> #   N_participant_responses <int>, adjusted_p_values.x <dbl>,
    #> #   adjusted_p_values.y <dbl>, square_categories <dbl>, check_p_square <dbl>,
    #> #   check_p_x_neg <dbl>, check_p_x_pos <dbl>, check_extreme_max_x <dbl>,
    #> #   check_extreme_min_x <dbl>, check_extreme_frequency_x <dbl>,
    #> #   check_middle_x <dbl>, extremes_all_x <dbl>, check_p_y_pos <dbl>,
    #> #   check_p_y_neg <dbl>, check_extreme_max_y <dbl>, …
